{
  "Serilog": {
    "Using": [ "Serilog.Sinks.Graylog", "Serilog.Sinks.Console" ],
    "MinimumLevel": "Information",
    "WriteTo": [
      {
        "Name": "Graylog",
        "Args": {
          "hostnameOrAddress": "localhost",
          "port": "12201",
          "transportType": "Udp",
          "facility": "CatalogService"
        }
      }
    ],

    "Properties": {
      "Application": "CatalogService"
    }
  }
}